{
	"info": {
		"_postman_id": "9ff5ac17-dde3-4a75-b040-9e05e6a86926",
		"name": "osTicket",
		"schema": "https://schema.getpostman.com/json/collection/v2.1.0/collection.json",
		"_exporter_id": "22513261"
	},
	"item": [
		{
			"name": "Create Ticket",
			"request": {
				"method": "POST",
				"header": [
					{
						"key": "X-API-Key",
						"value": "79EAD996A9B4D74BFFFCED7BDF5F0469",
						"type": "text"
					}
				],
				"body": {
					"mode": "raw",
					"raw": "{\r\n    \"autorespond\": false,\r\n    \"source\": \"API\",\r\n    \"name\": \"Aktenplan User\",\r\n    \"email\": \"user@offenburg.de\",\r\n    \"subject\": \"Requesting guidance for plan - 600.021\",\r\n    \"message\": \"I dont understand anything. Please help!\",\r\n    \"aktenzeichen\": \"600.021\"\r\n}",
					"options": {
						"raw": {
							"language": "json"
						}
					}
				},
				"url": {
					"raw": "http://localhost:8282/api/tickets.json",
					"protocol": "http",
					"host": [
						"localhost"
					],
					"port": "8282",
					"path": [
						"api",
						"tickets.json"
					]
				}
			},
			"response": []
		}
	]
}